[
    {
        "ministry": "Министерство здравоохранения",
        "declaration_type": "standard_form",
        "declarations": {
            "2018": "data/healthcare/Сведения_о_доходах_госслужащих_за_2018.xlsx",
            "2019": "data/healthcare/Сведения_о_доходах_госслужащих_за_2019_год.xlsx"
        }
    },
    {
        "ministry": "Министерство образования и науки",
        "declaration_type": "standard_form",
        "declarations": {
            "2018": "data/education/federalnye_gosudarstvennye_grazhdanskie_sluzhashchie.xlsx",
            "2019": "data/education/FGGS_2019.xlsx"
        }
    }
]
